[gd_scene load_steps=3 format=2]

[ext_resource path="res://codigo/plataformaNormal.gd" type="Script" id=1]
[ext_resource path="res://sprites/plataformas/ground_snow_small.png" type="Texture" id=2]

[node name="plataformaTierraPeque" type="Area2D"]
scale = Vector2( 0.5, 0.5 )
script = ExtResource( 1 )

[node name="Sprite" type="Sprite" parent="."]
texture = ExtResource( 2 )

[node name="CollisionPolygon2D" type="CollisionPolygon2D" parent="."]
polygon = PoolVector2Array( -90.6161, -45.2367, 87.7608, -48.4948, 99.9784, -34.6481, 100.793, -18.358, 75.5432, 48.4315, -77.584, 40.2864, -98.7611, -16.729, -98.7611, -37.0917 )

[node name="visibilidad" type="VisibilityNotifier2D" parent="."]
[connection signal="screen_exited" from="visibilidad" to="." method="_on_visibilidad_screen_exited"]
